{
    "btagging" : {
        "chars": [
        ],
        "floats": [
            "pt_btagJes",
            "eta_btagJes",
            "absEta_btagJes"
        ],
        "doubles": []
    },
    "jet" : {
        "ints": [
            "HadronConeExclTruthLabelID",
            "HadronConeExclExtendedTruthLabelID",
            "jetPtRank"
        ],
        "floats": [
            "GhostBHadronsFinalPt",
            "NNJvt"
        ]
    },
    "event" : {
        "customs": [
            "mcEventWeight",
            "eventNumber",
            "averageInteractionsPerCrossing",
            "actualInteractionsPerCrossing",
            "nPrimaryVertices"
        ]
    }
}
