{
    "file" : "EMPFlow.json",
    "variables": {
        "event": {
                "customs": [
                    "generatorWeight_GEN_Var3cDown",
                    "generatorWeight_GEN_Var3cUp",
                    "generatorWeight_GEN_hardHi",
                    "generatorWeight_GEN_hardLo",
                    "generatorWeight_GEN_isrPDFminus",
                    "generatorWeight_GEN_isrPDFplus",
                    "generatorWeight_GEN_isrmuRfac05_fsrmuRfac05",
                    "generatorWeight_GEN_isrmuRfac05_fsrmuRfac10",
                    "generatorWeight_GEN_isrmuRfac05_fsrmuRfac20",
                    "generatorWeight_GEN_isrmuRfac0625_fsrmuRfac10",
                    "generatorWeight_GEN_isrmuRfac075_fsrmuRfac10",
                    "generatorWeight_GEN_isrmuRfac0875_fsrmuRfac10",
                    "generatorWeight_GEN_isrmuRfac10_fsrmuRfac05",
                    "generatorWeight_GEN_isrmuRfac10_fsrmuRfac0625",
                    "generatorWeight_GEN_isrmuRfac10_fsrmuRfac075",
                    "generatorWeight_GEN_isrmuRfac10_fsrmuRfac0875",
                    "generatorWeight_GEN_isrmuRfac10_fsrmuRfac125",
                    "generatorWeight_GEN_isrmuRfac10_fsrmuRfac15",
                    "generatorWeight_GEN_isrmuRfac10_fsrmuRfac175",
                    "generatorWeight_GEN_isrmuRfac10_fsrmuRfac20",
                    "generatorWeight_GEN_isrmuRfac125_fsrmuRfac10",
                    "generatorWeight_GEN_isrmuRfac15_fsrmuRfac10",
                    "generatorWeight_GEN_isrmuRfac175_fsrmuRfac10",
                    "generatorWeight_GEN_isrmuRfac20_fsrmuRfac05",
                    "generatorWeight_GEN_isrmuRfac20_fsrmuRfac10",
                    "generatorWeight_GEN_isrmuRfac20_fsrmuRfac20"

                ]
        }

    },
    "ca_blocks": [
        {
            "block": "GeneratorWeights"
        }
    ]
}
