{   "mc21":false,
    "mc24":false,
    "data":true,
    "offline_jets": false,
    "do_track_matching": true,
    "emtopo_jets": true,
    "additional_chains": [],

    "dumper": {
        "jet_collection": "tempEmtopoJets",
        "calibration": {},
        "selection": {
            "minimum_jet_pt": 20000,
            "maximum_jet_absolute_eta": 2.5
        },
        "vertex_collection": "HLT_IDVertex_FS",
        "dl2_configs": [],
        "variables": {

            "jet": {
                "ints": [
                    "jetPtRank"
                ],
                "floats": [
                    "pt"
                ],
                "halves": [
                    "eta",
                    "fastDips_pb",
                    "fastDips_pc",
                    "fastDips_pu",
                    "fastGN120230327_pb",
                    "fastGN120230327_pc",
                    "fastGN120230327_pu",
                    "dipz20230223_z",
                    "dipz20230223_negLogSigma2"
                ]
            },
            "event" : {
                "compressed": [
                    "mcEventWeight",
                    "eventNumber",
                    "averageInteractionsPerCrossing",
                    "actualInteractionsPerCrossing",
                    "nPrimaryVertices",
                    "primaryVertexBeamspotZ",
                    "primaryVertexDetectorZUncertainty"
                ]
            },
            "default_mapping": {
                "file": "fragments/default-mapping.json"
            }
        },
        "tracks": [
        ],
        "decorate": {
            "jet_aug": false,
            "btag_jes": false,
            "soft_muon": false,
            "track_sv_info": false
        },
        "btagging_link": ""
    }
}
